module gitlab.com/biffen/saute

go 1.21

require (
	github.com/dotse/slug v0.1.0
	github.com/go-logr/logr v1.4.1
	github.com/stretchr/testify v1.9.0
	go.opentelemetry.io/contrib/exporters/autoexport v0.50.0
	go.opentelemetry.io/contrib/instrumentation/host v0.50.0
	go.opentelemetry.io/contrib/instrumentation/runtime v0.50.0
	go.opentelemetry.io/contrib/propagators/autoprop v0.50.0
	go.opentelemetry.io/otel v1.25.0
	go.opentelemetry.io/otel/sdk v1.25.0
	go.opentelemetry.io/otel/sdk/metric v1.25.0
	go.opentelemetry.io/otel/trace v1.25.0
)

require (
	github.com/beorn7/perks v1.0.1 // indirect
	github.com/cenkalti/backoff/v4 v4.3.0 // indirect
	github.com/cespare/xxhash/v2 v2.3.0 // indirect
	github.com/davecgh/go-spew v1.1.1 // indirect
	github.com/go-logr/stdr v1.2.2 // indirect
	github.com/go-ole/go-ole v1.3.0 // indirect
	github.com/grpc-ecosystem/grpc-gateway/v2 v2.19.1 // indirect
	github.com/logrusorgru/aurora v2.0.3+incompatible // indirect
	github.com/logrusorgru/aurora/v4 v4.0.0 // indirect
	github.com/lufia/plan9stats v0.0.0-20240408141607-282e7b5d6b74 // indirect
	github.com/pmezard/go-difflib v1.0.0 // indirect
	github.com/power-devops/perfstat v0.0.0-20240221224432-82ca36839d55 // indirect
	github.com/prometheus/client_golang v1.19.0 // indirect
	github.com/prometheus/client_model v0.6.1 // indirect
	github.com/prometheus/common v0.52.2 // indirect
	github.com/prometheus/procfs v0.13.0 // indirect
	github.com/shirou/gopsutil/v3 v3.24.3 // indirect
	github.com/shoenig/go-m1cpu v0.1.6 // indirect
	github.com/tklauser/go-sysconf v0.3.13 // indirect
	github.com/tklauser/numcpus v0.7.0 // indirect
	github.com/yusufpapurcu/wmi v1.2.4 // indirect
	go.opentelemetry.io/contrib/propagators/aws v1.25.0 // indirect
	go.opentelemetry.io/contrib/propagators/b3 v1.25.0 // indirect
	go.opentelemetry.io/contrib/propagators/jaeger v1.25.0 // indirect
	go.opentelemetry.io/contrib/propagators/ot v1.25.0 // indirect
	go.opentelemetry.io/otel/exporters/otlp/otlpmetric/otlpmetricgrpc v1.25.0 // indirect
	go.opentelemetry.io/otel/exporters/otlp/otlpmetric/otlpmetrichttp v1.25.0 // indirect
	go.opentelemetry.io/otel/exporters/otlp/otlptrace v1.25.0 // indirect
	go.opentelemetry.io/otel/exporters/otlp/otlptrace/otlptracegrpc v1.25.0 // indirect
	go.opentelemetry.io/otel/exporters/otlp/otlptrace/otlptracehttp v1.25.0 // indirect
	go.opentelemetry.io/otel/exporters/prometheus v0.47.0 // indirect
	go.opentelemetry.io/otel/exporters/stdout/stdoutmetric v1.25.0 // indirect
	go.opentelemetry.io/otel/exporters/stdout/stdouttrace v1.25.0 // indirect
	go.opentelemetry.io/otel/metric v1.25.0 // indirect
	go.opentelemetry.io/proto/otlp v1.2.0 // indirect
	go.uber.org/multierr v1.11.0 // indirect
	golang.org/x/net v0.24.0 // indirect
	golang.org/x/sys v0.19.0 // indirect
	golang.org/x/text v0.14.0 // indirect
	google.golang.org/genproto/googleapis/api v0.0.0-20240401170217-c3f982113cda // indirect
	google.golang.org/genproto/googleapis/rpc v0.0.0-20240401170217-c3f982113cda // indirect
	google.golang.org/grpc v1.63.2 // indirect
	google.golang.org/protobuf v1.33.0 // indirect
	gopkg.in/yaml.v3 v3.0.1 // indirect
)
